{
  "accountingSystemName": "GoldenGate",
  "dateFormat": "yyyy-MM-dd",
  "amountUnit": "DOLLAR",
  "mappingFields": [
    {
      "externalFieldName": "id",
      "fieldType": "STRING",
      "fieldPosition": 0,
      "internalFieldName": "invoiceId"
    },
    {
      "externalFieldName": "customer",
      "fieldType": "STRING",
      "fieldPosition": 1,
      "nested": true,
      "nestedFieldName": "buyerName",
      "internalFieldName": "buyer"
    },
    {
      "externalFieldName": "amount",
      "fieldType": "DECIMAL",
      "fieldPosition": 2,
      "internalFieldName": "transactionAmount"
    },
    {
      "externalFieldName": "date",
      "fieldType": "DATE",
      "fieldPosition": 3,
      "internalFieldName": "createdDate"
    },
    {
      "externalFieldName": "adjustment",
      "fieldType": "DECIMAL",
      "fieldPosition": 4,
      "internalFieldName": "adjustmentAmount"
    },
    {
      "externalFieldName": "term_schedule",
      "fieldType": "INTEGER",
      "fieldPosition": 5,
      "internalFieldName": "paymentTerm"
    },
    {
      "externalFieldName": "items",
      "fieldType": "LIST_IN_JSON",
      "fieldPosition": 6,
      "internalFieldName": "invoiceItems",
      "invoiceItemMapping": {
        "entryName": "items",
        "invoiceItemFieldMappingList": [
          {
            "externalFieldName": "item",
            "fieldType": "STRING",
            "internalFieldName": "item"
          },
          {
            "externalFieldName": "quantity",
            "fieldType": "INTEGER",
            "internalFieldName": "quantity"
          },
          {
            "externalFieldName": "unitPrice",
            "fieldType": "DECIMAL",
            "internalFieldName": "unitPrice"
          },
          {
            "externalFieldName": "totalAmount",
            "fieldType": "DECIMAL",
            "internalFieldName": "totalAmount"
          },
          {
            "externalFieldName": "description",
            "fieldType": "STRING",
            "internalFieldName": "description"
          }
        ]
      }
    },
    {
      "externalFieldName": "billing_address",
      "fieldType": "STRING",
      "fieldPosition": 7,
      "nested": true,
      "nestedFieldName": "billingAddress",
      "internalFieldName": "buyer"
    },
    {
      "externalFieldName": "shipping_address",
      "fieldType": "STRING",
      "fieldPosition": 8,
      "nested": true,
      "nestedFieldName": "shippingAddress",
      "internalFieldName": "buyer"
    },
    {
      "externalFieldName": "paid_at",
      "fieldType": "DATE",
      "fieldPosition": 9,
      "internalFieldName": "paidDate"
    },
    {
      "externalFieldName": "paid_amount",
      "fieldType": "DECIMAL",
      "fieldPosition": 10,
      "internalFieldName": "paidAmount"
    },
    {
      "externalFieldName": "note",
      "fieldType": "STRING",
      "fieldPosition": 11,
      "internalFieldName": "note"
    }
  ]
}